["Bigfoot fact #27: Scientists discount the existence of Bigfoot and consider it to be a combination of folklore, misidentification, and hoax, rather than a living animal.",
"Bigfoot fact #328: Bigfoot are also known as Sasquatch.",
"Bigfoot fact #19: Adult bigfoot can grow up to 10 feet tall (2 to 3 meters).",
"Bigfoot fact #22: Adult bigfoot can weigh upwards of 1000 pounds (450 kilograms).",
"Bigfoot fact #25: A full grown bigfoot foot is almost two feet long!",
"Bigfoot fact #105: Bigfoot can run up to 30mph.",
"Bigfoot fact #6: Bigfoot can jump the full length of their bodies.",
"Bigfoot fact #41: In 1965, Bigfoot was officially put on the endangered species list in Russia. Germany and France followed suit in 1967.",
"Bigfoot fact #293: British explorer David Thompson is sometimes credited with the first discovery in 1811 of a set of Sasquatch footprints.",
"Bigfoot fact #38: Some researchers believe Bigfoot is closely related to humans while others think Bigfoot originated from an extinct giant ape.",
"Bigfoot fact #42: The eating habits of Bigfoot are widely disputed. Researchers suggest it may be vegetarian, while others believe the creature must be a carnivore.",
"Bigfoot fact #56: According to a 2007 survey, only 16 percent of Americans said that Bigfoot 'absolutely' or 'probably' exist, with 44 percent responding 'probably not' and about 40 percent saying that they 'absolutely do not' exist.",
"Bigfoot fact #61: Most Bigfoot researchers admit that the vast majority of sightings are mistakes or hoaxes (up to 95 percent, by some estimates). Still, they insist that a Bigfoot must be hiding in that tiny portion of sightings and reports that can't be easily explained.",
"Bigfoot fact #77: The most famous image of a Bigfoot is the short film taken in 1967 by Roger Patterson and Bob Gimlin. Shot in Bluff Creek, Calif., it shows a dark, man-sized and man-shaped figure striding through a clearing.",
"Bigfoot fact #83: In 1847, Paul Kane reported stories by the Indians about skoocooms, a race of cannibalistic wildmen living on the peak of Mount St. Helens in southern  Washington state.",
"Bigfoot fact #96: In 1840, Reverend Elkanah Walker recorded stories of giants among the Indians living near Spokane, Washington. The Indians said that these giants lived on and around the peaks of nearby mountains and stole salmon from the fishermen's nets.",
"Bigfoot fact #131: The name 'Bigfoot' was first recorded by Americans in the late 19th century.",
"Bigfoot fact #128: The Idaho Bigfoot was shot and killed in 1902 near Pierce City and was credited with killing 1,000 cattle in his lifetime.",
"Bigfoot fact #300: About one-third of all claims of Bigfoot sightings are located in the Pacific Northwest.",
"Bigfoot fact #264: In 2007, the Bigfoot Field Researchers Organization put forward some photos which they claimed showed a juvenile Bigfoot. The Pennsylvania Game Commission, however, said that the photos were of a bear with mange.",
"Bigfoot fact #270: Bigfoot proponents Grover Krantz and Geoffrey H. Bourne believed that Bigfoot could be a relict population of Gigantopithecus.",
"Bigfoot fact #320: In a 1996 USA Today article, Washington State zoologist John Crane said, 'There is no such thing as Bigfoot. No data other than material thats clearly been fabricated has ever been presented.'",
"Bigfoot fact #250: The first scientific study of available evidence was conducted by John Napier and published in his book, Bigfoot: The Yeti and Sasquatch in Myth and Reality, in 1973.",
"Bigfoot fact #149: In 1974, the National Wildlife Federation funded a field study seeking Bigfoot evidence. No formal federation members were involved and the study made no notable discoveries.",
"Bigfoot fact #208: Beginning in the late 1970s, physical anthropologist Grover Krantz published several articles and four book-length treatments of Sasquatch. However, his work was found to contain multiple scientific failings including falling for hoaxes.",
"Bigfoot fact #171: A study published in the Journal of Biogeography in 2009 by J.D. Lozier et al. used ecological niche modeling on reported sightings of Bigfoot, using their locations to infer Bigfoot's preferred ecological parameters. They found a very close match with the ecological parameters of the American black bear, Ursus americanus.",
"Bigfoot fact #314: In the first systematic genetic analysis of 30 hair samples that were suspected to be from bigfoot, yeti, sasquatch, almasty or other anomalous primates, only one was found to be primate in origin, and that was identified as human.",
"Bigfoot fact #278: There are several organizations dedicated to the research and investigation of Bigfoot sightings in the United States. The oldest and largest is the Bigfoot Field Researchers Organization.",
"Bigfoot fact #36: When asked for her opinion of Bigfoot in a September 27, 2002, interview on National Public Radio's 'Science Friday', Jane Goodall said 'I'm sure they exist', and later said, chuckling, 'Well, I'm a romantic, so I always wanted them to exist', and finally, 'You know, why isn't there a body? I can't answer that, and maybe they don't exist, but I want them to.'",
"Bigfoot fact #80: A TV show about Sasquatch titled Finding Bigfoot began airing in 2011 and rose to some popularity on Animal Planet."]
